[main] 17:26:12,059 DEBUG [com.qmetry.qaf.automation.testng.pro.QAFAnnotationTransformer2] QAFTestNGListener registered!...
[main] 17:26:12,074 DEBUG [com.qmetry.qaf.automation.testng.pro.QAFInvokedMethodListener2] QAFTestNGListener registered!...
[main] 17:26:12,074 DEBUG [com.qmetry.qaf.automation.testng.pro.QAFMethodInterceptor] QAFTestNGListener registered!...
[main] 17:26:12,090 DEBUG [com.qmetry.qaf.automation.testng.pro.QAFResultListener] QAFTestNGListener registered!...
[main] 17:26:12,090 DEBUG [com.qmetry.qaf.automation.testng.pro.QAFSuiteListener] QAFTestNGListener registered!...
[main] 17:26:12,440 INFO  [com.qmetry.qaf.automation.core.ConfigurationManager] ISFW build info: {qaf-Type=core, qaf-Revision=12, qaf-Version=2.1, qaf-Build-Time=06-Sep-2017 07:56:25}
[main] 17:26:12,490 INFO  [com.qmetry.qaf.automation.core.ConfigurationManager] Resource dir: D:\Assignments\WeekThird\Orbit\resources. Found property files to load: 3
[main] 17:26:12,559 DEBUG [com.qmetry.qaf.automation.util.PropertyUtil] clear system property ignored:file.encoding.pkg
[main] 17:26:12,559 DEBUG [com.qmetry.qaf.automation.util.PropertyUtil] clear system property ignored:file.encoding
[main] 17:26:12,559 DEBUG [com.qmetry.qaf.automation.util.PropertyUtil] clear system property ignored:file.separator
[main] 17:26:12,559 DEBUG [com.qmetry.qaf.automation.util.PropertyUtil] clear system property ignored:user.country
[main] 17:26:12,559 DEBUG [com.qmetry.qaf.automation.util.PropertyUtil] clear system property ignored:user.script
[main] 17:26:12,559 DEBUG [com.qmetry.qaf.automation.util.PropertyUtil] clear system property ignored:user.dir
[main] 17:26:12,559 DEBUG [com.qmetry.qaf.automation.util.PropertyUtil] clear system property ignored:user.variant
[main] 17:26:12,559 DEBUG [com.qmetry.qaf.automation.util.PropertyUtil] clear system property ignored:user.home
[main] 17:26:12,559 DEBUG [com.qmetry.qaf.automation.util.PropertyUtil] clear system property ignored:user.timezone
[main] 17:26:12,559 DEBUG [com.qmetry.qaf.automation.util.PropertyUtil] clear system property ignored:user.name
[main] 17:26:12,559 DEBUG [com.qmetry.qaf.automation.util.PropertyUtil] clear system property ignored:user.language
[main] 17:26:12,559 DEBUG [com.qmetry.qaf.automation.util.PropertyUtil] clear system property ignored:selenium.screenshots.relative.path
[main] 17:26:12,559 DEBUG [com.qmetry.qaf.automation.util.PropertyUtil] clear system property ignored:selenium.screenshots.dir
[main] 17:26:12,559 DEBUG [com.qmetry.qaf.automation.util.PropertyUtil] clear system property ignored:os.arch
[main] 17:26:12,559 DEBUG [com.qmetry.qaf.automation.util.PropertyUtil] clear system property ignored:os.name
[main] 17:26:12,559 DEBUG [com.qmetry.qaf.automation.util.PropertyUtil] clear system property ignored:os.version
[main] 17:26:12,559 DEBUG [com.qmetry.qaf.automation.util.PropertyUtil] clear system property ignored:line.separator
[main] 17:26:12,559 DEBUG [com.qmetry.qaf.automation.util.PropertyUtil] clear system property ignored:log4j.configuration
[main] 17:26:12,559 DEBUG [com.qmetry.qaf.automation.util.PropertyUtil] clear system property ignored:json.report.dir
[main] 17:26:12,559 DEBUG [com.qmetry.qaf.automation.util.PropertyUtil] clear system property ignored:awt.toolkit
[main] 17:26:12,559 DEBUG [com.qmetry.qaf.automation.util.PropertyUtil] clear system property ignored:outputDir
[main] 17:26:12,559 INFO  [com.qmetry.qaf.automation.core.ConfigurationManager] Resource dir: D:\Assignments\WeekThird\Orbit\resources. Found property files to load: 1
[main] 17:26:12,575 DEBUG [org.apache.commons.configuration.ConfigurationUtils] ConfigurationUtils.locate(): base is null, name is null
[main] 17:26:12,744 DEBUG [org.apache.commons.configuration.ConfigurationUtils] ConfigurationUtils.locate(): base is D:\Assignments\WeekThird\Orbit\resources, name is data.xml
[main] 17:26:12,744 DEBUG [org.apache.commons.configuration.DefaultFileSystem] Could not locate file data.xml at D:\Assignments\WeekThird\Orbit\resources: unknown protocol: d
[main] 17:26:12,744 DEBUG [org.apache.commons.configuration.ConfigurationUtils] Loading configuration from the path D:\Assignments\WeekThird\Orbit\resources\data.xml
[main] 17:26:12,760 DEBUG [com.qmetry.qaf.automation.util.PropertyUtil] clear system property ignored:file.encoding.pkg
[main] 17:26:12,760 DEBUG [com.qmetry.qaf.automation.util.PropertyUtil] clear system property ignored:file.encoding
[main] 17:26:12,760 DEBUG [com.qmetry.qaf.automation.util.PropertyUtil] clear system property ignored:file.separator
[main] 17:26:12,760 DEBUG [com.qmetry.qaf.automation.util.PropertyUtil] clear system property ignored:user.country
[main] 17:26:12,760 DEBUG [com.qmetry.qaf.automation.util.PropertyUtil] clear system property ignored:user.script
[main] 17:26:12,760 DEBUG [com.qmetry.qaf.automation.util.PropertyUtil] clear system property ignored:user.dir
[main] 17:26:12,760 DEBUG [com.qmetry.qaf.automation.util.PropertyUtil] clear system property ignored:user.variant
[main] 17:26:12,760 DEBUG [com.qmetry.qaf.automation.util.PropertyUtil] clear system property ignored:user.home
[main] 17:26:12,760 DEBUG [com.qmetry.qaf.automation.util.PropertyUtil] clear system property ignored:user.timezone
[main] 17:26:12,760 DEBUG [com.qmetry.qaf.automation.util.PropertyUtil] clear system property ignored:user.name
[main] 17:26:12,760 DEBUG [com.qmetry.qaf.automation.util.PropertyUtil] clear system property ignored:user.language
[main] 17:26:12,760 DEBUG [com.qmetry.qaf.automation.util.PropertyUtil] clear system property ignored:selenium.screenshots.relative.path
[main] 17:26:12,760 DEBUG [com.qmetry.qaf.automation.util.PropertyUtil] clear system property ignored:selenium.screenshots.dir
[main] 17:26:12,760 DEBUG [com.qmetry.qaf.automation.util.PropertyUtil] clear system property ignored:os.arch
[main] 17:26:12,760 DEBUG [com.qmetry.qaf.automation.util.PropertyUtil] clear system property ignored:os.name
[main] 17:26:12,760 DEBUG [com.qmetry.qaf.automation.util.PropertyUtil] clear system property ignored:os.version
[main] 17:26:12,760 DEBUG [com.qmetry.qaf.automation.util.PropertyUtil] clear system property ignored:line.separator
[main] 17:26:12,760 DEBUG [com.qmetry.qaf.automation.util.PropertyUtil] clear system property ignored:log4j.configuration
[main] 17:26:12,760 DEBUG [com.qmetry.qaf.automation.util.PropertyUtil] clear system property ignored:json.report.dir
[main] 17:26:12,760 DEBUG [com.qmetry.qaf.automation.util.PropertyUtil] clear system property ignored:awt.toolkit
[main] 17:26:12,760 DEBUG [com.qmetry.qaf.automation.util.PropertyUtil] clear system property ignored:outputDir
[main] 17:26:13,191 DEBUG [com.qmetry.qaf.automation.testng.pro.QAFInvokedMethodListener2] beforeInvocation: setupSuit
[main] 17:26:13,207 DEBUG [com.qmetry.qaf.automation.testng.pro.QAFInvokedMethodListener2] afterInvocation: setupSuit - com.qmetry.qaf.automation.ui is test:false
[main] 17:26:13,207 DEBUG [com.qmetry.qaf.automation.testng.pro.QAFInvokedMethodListener2] afterInvocation: Done
[main] 17:26:13,207 DEBUG [com.qmetry.qaf.automation.testng.pro.QAFInvokedMethodListener2] beforeInvocation: setupTest
[main] 17:26:13,207 DEBUG [com.qmetry.qaf.automation.testng.pro.QAFInvokedMethodListener2] afterInvocation: setupTest - com.qmetry.qaf.automation.ui is test:false
[main] 17:26:13,207 DEBUG [com.qmetry.qaf.automation.testng.pro.QAFInvokedMethodListener2] afterInvocation: Done
[main] 17:26:13,207 DEBUG [com.qmetry.qaf.automation.testng.pro.QAFMethodInterceptor] Method Order interceptor called
[main] 17:26:13,207 DEBUG [com.qmetry.qaf.automation.testng.pro.QAFInvokedMethodListener2] beforeInvocation: setup
[main] 17:26:13,207 DEBUG [com.qmetry.qaf.automation.testng.pro.QAFInvokedMethodListener2] afterInvocation: setup - com.qmetry.qaf.automation.ui is test:false
[main] 17:26:13,207 DEBUG [com.qmetry.qaf.automation.testng.pro.QAFInvokedMethodListener2] afterInvocation: Done
[main] 17:26:13,293 INFO  [com.qmetry.qaf.automation.util.CSVUtil] loading csv data file: resources/flightdata.csv
[main] 17:26:13,346 DEBUG [com.qmetry.qaf.automation.testng.pro.QAFInvokedMethodListener2] beforeInvocation: afterClass
[main] 17:26:13,346 DEBUG [com.qmetry.qaf.automation.testng.pro.QAFInvokedMethodListener2] afterInvocation: afterClass - com.qmetry.qaf.automation.ui is test:false
[main] 17:26:13,346 DEBUG [com.qmetry.qaf.automation.testng.pro.QAFInvokedMethodListener2] afterInvocation: Done
[main] 17:26:13,346 DEBUG [com.qmetry.qaf.automation.testng.pro.QAFInvokedMethodListener2] beforeInvocation: afterTest
[main] 17:26:13,346 DEBUG [com.qmetry.qaf.automation.testng.pro.QAFInvokedMethodListener2] afterInvocation: afterTest - com.qmetry.qaf.automation.ui is test:false
[main] 17:26:13,346 DEBUG [com.qmetry.qaf.automation.testng.pro.QAFInvokedMethodListener2] afterInvocation: Done
[main] 17:26:13,362 DEBUG [com.qmetry.qaf.automation.testng.pro.QAFResultListener] onfinish testcntext: start
[main] 17:26:13,525 DEBUG [com.qmetry.qaf.automation.testng.pro.QAFInvokedMethodListener2] beforeInvocation: afterSuit
[main] 17:26:13,543 DEBUG [com.qmetry.qaf.automation.testng.pro.QAFInvokedMethodListener2] afterInvocation: afterSuit - com.qmetry.qaf.automation.ui is test:false
[main] 17:26:13,543 DEBUG [com.qmetry.qaf.automation.testng.pro.QAFInvokedMethodListener2] afterInvocation: Done
[main] 17:26:13,546 DEBUG [com.qmetry.qaf.automation.testng.pro.QAFSuiteListener] onFinish: start
[main] 17:26:13,547 DEBUG [com.qmetry.qaf.automation.testng.pro.QAFSuiteListener] onFinish: done
